<svg width="16" height="12" viewBox="0 0 16 12" fill="none" xmlns="http://www.w3.org/2000/svg">
<path d="M11.4418 1.12168C11.1053 0.86933 10.5165 0.869331 10.2641 1.28992L4.37599 8.8605L1.51603 5.32756C1.26368 4.99109 0.674863 4.90697 0.338398 5.15933C0.00193175 5.41168 -0.0821848 6.0005 0.170165 6.33697L3.70306 10.7111C3.87129 10.9634 4.12364 11.0476 4.37599 11.0476C4.62834 11.0476 4.88069 10.9634 5.04892 10.7111L11.61 2.29933C11.9465 1.96286 11.8624 1.45815 11.4418 1.12168Z" fill="#389E0D"/>
<path d="M15.6474 1.12168C15.3109 0.86933 14.7221 0.869331 14.4698 1.28992L8.58161 8.8605L8.07691 8.18756L6.9834 9.53344L7.90868 10.7111C8.07691 10.8793 8.32926 11.0476 8.58161 11.0476C8.83396 11.0476 9.08631 10.9634 9.25454 10.7111L15.8156 2.29933C16.1521 1.96286 16.068 1.37404 15.6474 1.12168Z" fill="#389E0D"/>
<path d="M4.7968 6.92575L5.89032 5.57987L5.72208 5.41164C5.46973 4.99105 4.88092 4.90693 4.54445 5.15928C4.20799 5.41164 4.12387 6.00046 4.37622 6.33693L4.7968 6.92575Z" fill="#389E0D"/>
</svg>
